{
    "general": {
        "version": {
            "sw": "0.1.0",
            "pcb": "",
            "cad": ""
        },
        "license": {
            "sw": "MIT",
            "hw": ""
        },
        "language": "C++ (Arduino)"
    },
    "specific": {}
}
